<?xml version="1.0" standalone="no"?>
<!DOCTYPE svg PUBLIC "-//W3C//DTD SVG 20010904//EN"
 "http://www.w3.org/TR/2001/REC-SVG-20010904/DTD/svg10.dtd">
<svg version="1.0" xmlns="http://www.w3.org/2000/svg"
 width="664.000000pt" height="664.000000pt" viewBox="0 0 664.000000 664.000000"
 preserveAspectRatio="xMidYMid meet">
<metadata>
Created by potrace 1.14, written by Peter Selinger 2001-2017
</metadata>
<g transform="translate(0.000000,664.000000) scale(0.100000,-0.100000)"
fill="#000000" stroke="none">
<path d="M5803 6620 c-4 -4 -46 -22 -93 -40 -47 -18 -89 -37 -94 -42 -6 -4
-15 -8 -22 -8 -6 0 -33 -10 -60 -22 -27 -12 -51 -23 -54 -23 -19 -3 -80 -30
-80 -35 0 -4 -6 -7 -12 -7 -7 0 -44 -15 -83 -32 -38 -18 -86 -39 -105 -48 -19
-8 -42 -19 -50 -24 -8 -5 -26 -14 -40 -20 -150 -64 -423 -225 -510 -301 -8 -7
-37 -30 -65 -52 -27 -21 -100 -89 -162 -151 l-112 -113 -41 54 c-50 67 -117
120 -209 168 -38 20 -72 36 -75 36 -3 0 17 -46 44 -102 55 -117 93 -226 109
-313 6 -33 13 -69 15 -80 2 -11 7 -42 10 -68 4 -27 9 -57 11 -66 2 -10 6 -42
9 -72 3 -30 8 -70 11 -89 6 -52 17 -140 20 -180 2 -19 6 -51 9 -70 4 -30 20
-160 31 -250 4 -36 16 -140 21 -175 5 -38 13 -118 18 -170 2 -22 7 -58 10 -80
3 -22 8 -60 11 -85 3 -25 7 -62 10 -82 11 -82 15 -115 20 -168 6 -54 10 -93
20 -167 5 -42 10 -79 20 -168 3 -33 8 -73 10 -90 2 -16 7 -55 10 -85 3 -30 7
-64 9 -75 3 -18 -77 -145 -96 -153 -5 -2 -8 -10 -8 -17 0 -7 -3 -15 -7 -17 -5
-1 -21 -23 -38 -48 -26 -40 -57 -83 -85 -117 -5 -6 -23 -34 -40 -62 -18 -28
-36 -51 -41 -51 -6 0 -7 -4 -4 -10 3 -5 1 -10 -4 -10 -27 0 -6 -30 47 -66 31
-21 85 -68 120 -103 60 -62 140 -176 135 -193 -2 -4 1 -8 6 -8 12 0 64 -137
76 -200 2 -12 6 -29 9 -38 35 -116 40 -417 11 -642 -12 -95 -16 -127 -20 -140
-2 -8 -6 -26 -9 -40 -41 -232 -144 -460 -264 -588 -52 -56 -52 -56 -72 -37
-10 11 -57 74 -104 140 -47 66 -89 125 -93 130 -5 6 -31 42 -58 80 -84 119
-228 310 -237 313 -4 2 -8 9 -8 15 0 7 -15 28 -33 48 -17 19 -50 60 -73 90
-23 29 -54 70 -70 89 -53 65 -310 316 -357 350 -26 18 -47 37 -47 42 0 4 -4 8
-9 8 -6 0 -29 13 -53 29 -110 74 -195 95 -384 95 -78 0 -108 3 -100 11 6 5 45
39 86 75 41 36 81 72 90 80 9 8 44 40 79 70 35 30 82 72 104 92 l42 37 1 1378
c0 758 4 1402 8 1432 18 126 41 181 126 302 14 20 32 47 40 59 8 13 26 37 40
54 28 36 14 26 -105 -79 -26 -23 -148 -109 -185 -130 -74 -43 -274 -136 -335
-155 -38 -12 -77 -25 -85 -28 -18 -6 -22 -7 -83 -21 -26 -6 -64 -14 -85 -17
-20 -3 -43 -7 -51 -10 -52 -17 -435 -25 -561 -11 -354 41 -579 154 -752 377
l-27 35 5 -45 c3 -25 7 -58 9 -75 3 -16 8 -52 11 -80 3 -27 8 -54 12 -59 3 -5
6 -19 7 -30 7 -62 82 -252 127 -321 31 -47 108 -120 168 -160 59 -38 248 -135
274 -139 6 -1 47 -16 92 -33 93 -37 348 -116 439 -138 6 -1 22 -5 37 -9 l27
-8 0 -729 c-1 -401 -4 -729 -7 -729 -4 0 -13 15 -21 33 -34 81 -141 296 -151
302 -6 3 -8 11 -5 16 4 5 1 9 -4 9 -6 0 -11 7 -11 15 0 8 -4 15 -10 15 -5 0
-10 5 -10 12 0 15 -44 81 -85 127 -127 144 -206 191 -365 217 -14 2 -36 7 -49
10 -42 9 -192 5 -230 -6 -128 -39 -252 -151 -278 -250 -18 -71 -4 -194 30
-257 27 -51 96 -111 147 -128 47 -16 149 -22 205 -13 38 6 100 35 116 54 17
21 18 121 2 178 -19 65 -9 72 102 67 216 -9 517 -434 594 -836 6 -33 14 -73
18 -90 3 -16 8 -200 10 -407 l3 -378 -102 0 c-57 1 -118 -4 -136 -9 -18 -5
-36 -10 -40 -10 -26 -3 -115 -39 -163 -67 -58 -35 -183 -150 -232 -214 l-26
-36 134 1 c74 0 135 -2 135 -5 0 -3 -25 -31 -55 -62 -68 -71 -120 -151 -135
-208 -21 -78 -22 -236 -1 -315 10 -38 24 -82 32 -96 17 -31 75 -99 85 -99 4 0
15 -6 23 -14 55 -49 239 -69 336 -37 86 28 85 31 -6 68 -258 104 -330 170
-324 298 3 75 8 93 41 160 40 82 137 170 198 179 6 1 16 4 21 7 12 7 185 3
233 -5 50 -9 150 -61 227 -119 69 -52 93 -75 175 -174 47 -56 635 -742 654
-763 12 -14 62 -72 111 -130 49 -58 93 -107 97 -108 5 -2 8 -7 8 -12 0 -5 12
-21 28 -37 15 -15 37 -40 48 -55 12 -15 26 -28 31 -30 9 -3 102 77 273 235 25
23 85 78 135 122 49 44 99 89 111 100 28 26 163 149 190 172 12 10 63 56 114
103 51 47 103 94 116 105 26 24 165 149 204 185 15 14 63 57 106 95 179 159
272 264 383 429 136 202 206 388 246 656 18 122 25 535 11 650 -4 30 -9 75
-11 100 -2 25 -7 65 -9 90 -3 25 -8 70 -10 100 -3 30 -6 55 -6 55 -1 0 -3 20
-5 45 -7 72 -15 153 -19 185 -2 17 -7 62 -11 100 -3 39 -8 86 -10 105 -2 19
-6 62 -10 95 -3 33 -8 71 -10 85 -2 14 -6 57 -10 95 -8 100 -18 189 -30 285
-4 37 -11 105 -20 205 -3 33 -7 76 -10 95 -4 31 -13 116 -20 190 -1 14 -6 52
-9 85 -4 33 -9 83 -11 110 -3 28 -7 68 -9 90 -13 112 -16 146 -22 210 -3 39
-8 79 -10 90 -23 108 -23 486 0 523 4 7 5 12 2 12 -16 0 78 211 103 230 4 3
14 16 22 30 49 76 203 219 333 310 20 14 47 33 59 44 12 10 42 32 67 49 25 17
50 36 57 42 6 5 37 28 68 50 31 22 64 45 72 51 14 9 14 11 0 11 -9 0 -20 -3
-24 -7z"/>
</g>
</svg>
